…
```r
Electric_Vehicle_Population_Data
```

```
## # A tibble: 121,978 × 17
##    `VIN (1-10)` County   City  State Posta…¹ Model…² Make  Model Elect…³ Clean…⁴
##    <chr>        <chr>    <chr> <chr>   <dbl>   <dbl> <chr> <chr> <chr>   <chr>  
##  1 5YJ3E1EB2J   Suffolk  Suff… VA      23435    2018 TESLA MODE… Batter… Clean …
##  2 5YJ3E1ECXL   Yakima   Yaki… WA      98908    2020 TESLA MODE… Batter… Clean …
##  3 WA1LAAGE7M   Yakima   Yaki… WA      98908    2021 AUDI  E-TR… Batter… Clean …
##  4 5YJ3E1EA1K   Danville Danv… VA      24541    2019 TESLA MODE… Batter… Clean …
##  5 1FADP5CU9E   Norfolk  Norf… VA      23518    2014 FORD  C-MAX Plug-i… Not el…
##  6 1N4AZ0CP1F   Thurston Olym… WA      98502    2015 NISS… LEAF  Batter… Clean …
##  7 1G1RH6E48D   Thurston Teni… WA      98589    2013 CHEV… VOLT  Plug-i… Clean …
##  8 5YJSA1E13G   Snohomi… Both… WA      98021    2016 TESLA MODE… Batter… Clean …
##  9 1N4AZ1CP0J   King     Seat… WA      98112    2018 NISS… LEAF  Batter… Clean …
## 10 5YJ3E1EB0J   Kittitas Cle … WA      98922    2018 TESLA MODE… Batter… Clean …
## # … with 121,968 more rows, 7 more variables: `Electric Range` <dbl>,
## #   `Base MSRP` <dbl>, `Legislative District` <dbl>, `DOL Vehicle ID` <dbl>,
## #   `Vehicle Location` <chr>, `Electric Utility` <chr>,
## #   `2020 Census Tract` <chr>, and abbreviated variable names ¹​`Postal Code`,
## #   ²​`Model Year`, ³​`Electric Vehicle Type`,
## #   ⁴​`Clean Alternative Fuel Vehicle (CAFV) Eligibility`
```
…
